{
  "minecraft:recipes/transportation/acacia_boat": {
    "criteria": {
      "in_water": "2020-11-30 20:07:17 +0000"
    },
    "done": true
  },
  "minecraft:recipes/transportation/oak_boat": {
    "criteria": {
      "in_water": "2020-11-30 20:07:17 +0000"
    },
    "done": true
  },
  "minecraft:recipes/transportation/dark_oak_boat": {
    "criteria": {
      "in_water": "2020-11-30 20:07:17 +0000"
    },
    "done": true
  },
  "minecraft:recipes/transportation/birch_boat": {
    "criteria": {
      "in_water": "2020-11-30 20:07:17 +0000"
    },
    "done": true
  },
  "minecraft:recipes/transportation/jungle_boat": {
    "criteria": {
      "in_water": "2020-11-30 20:07:17 +0000"
    },
    "done": true
  },
  "minecraft:recipes/transportation/spruce_boat": {
    "criteria": {
      "in_water": "2020-11-30 20:07:17 +0000"
    },
    "done": true
  },
  "minecraft:adventure/adventuring_time": {
    "criteria": {
      "minecraft:cold_ocean": "2020-11-30 20:08:59 +0000",
      "minecraft:forest": "2020-11-30 20:00:36 +0000",
      "minecraft:mountains": "2020-11-30 20:09:18 +0000",
      "minecraft:beach": "2020-11-30 20:07:00 +0000",
      "minecraft:river": "2020-11-30 20:07:16 +0000",
      "minecraft:wooded_mountains": "2020-11-30 20:10:50 +0000",
      "minecraft:stone_shore": "2020-11-30 20:08:50 +0000",
      "minecraft:plains": "2020-11-30 20:01:27 +0000"
    },
    "done": false
  },
  "DataVersion": 2584
}